        -:    0:Source:primes.c
        -:    0:Graph:primes.gcno
        -:    0:Data:primes.gcda
        -:    0:Runs:1
        -:    1:#include <stdio.h>
        -:    2:
        1:    3:void search_prime_numbers(int max) {
        -:    4:    
        1:    5:    int primes[max];
        1:    6:    int n = 0;
        1:    7:    int i = 2;
        -:    8:    
      523:    9:    while (n < max - 1) {
        -:   10:        
      522:   11:        int prime = 1;
        -:   12:        
      522:   13:        if (n > 0) {
      521:   14:            int *p = primes;
      521:   15:            int *end = primes + n - 1;
     5602:   16:            while (p != end)
     5504:   17:                if (i % *(p++) == 0) {
      423:   18:                    prime = 0;
      423:   19:                    break;
        -:   20:                }
        -:   21:        }
        -:   22:        
      522:   23:        if (prime) {
       99:   24:            primes[n++] = i;
       99:   25:            printf(" %d", i);
        -:   26:        }
        -:   27:        
      522:   28:        ++i;
        -:   29:    }
        1:   30:    printf("\n");
        1:   31:}
        -:   32:
        1:   33:int main(int argc, char* argv[]) {
        -:   34:
        1:   35:    search_prime_numbers(100);
        -:   36:
        1:   37:    return 0;
        -:   38:}
